<svg width="40" height="40" viewBox="0 0 40 40" fill="none" xmlns="http://www.w3.org/2000/svg">
<path d="M16.6667 20.0001C16.6667 21.841 18.1591 23.3334 20 23.3334C21.841 23.3334 23.3334 21.841 23.3334 20.0001C23.3334 18.1591 21.841 16.6667 20 16.6667C18.1591 16.6667 16.6667 18.1591 16.6667 20.0001Z" fill="#49BA88"/>
<path d="M16.6667 10.0001C16.6667 11.841 18.1591 13.3334 20 13.3334C21.841 13.3334 23.3334 11.841 23.3334 10.0001C23.3334 8.15913 21.841 6.66675 20 6.66675C18.1591 6.66675 16.6667 8.15913 16.6667 10.0001Z" fill="#49BA88"/>
<path d="M16.6667 30.0001C16.6667 31.841 18.1591 33.3334 20 33.3334C21.841 33.3334 23.3334 31.841 23.3334 30.0001C23.3334 28.1591 21.841 26.6667 20 26.6667C18.1591 26.6667 16.6667 28.1591 16.6667 30.0001Z" fill="#49BA88"/>
</svg>
