<svg width="40" height="40" viewBox="0 0 40 40" fill="none" xmlns="http://www.w3.org/2000/svg">
<path d="M27.1548 3.82153C27.8057 3.17066 28.861 3.17066 29.5118 3.82153L36.1785 10.4882C36.8294 11.1391 36.8294 12.1943 36.1785 12.8452L14.5118 34.5119C14.1993 34.8244 13.7754 35 13.3333 35H6.66667C5.74619 35 5 34.2538 5 33.3334V26.6667C5 26.2247 5.17559 25.8008 5.48816 25.4882L22.1545 8.82188L27.1548 3.82153ZM23.3333 12.3571L8.33333 27.3571V31.6667H12.643L27.643 16.6667L23.3333 12.3571ZM30 14.3097L32.643 11.6667L28.3333 7.35706L25.6904 10L30 14.3097Z" fill="white"/>
</svg>
