<svg width="40" height="40" viewBox="0 0 40 40" fill="none" xmlns="http://www.w3.org/2000/svg">
<path d="M16.6666 20C16.6666 21.8409 18.159 23.3333 19.9999 23.3333C21.8409 23.3333 23.3333 21.8409 23.3333 20C23.3333 18.159 21.8409 16.6666 19.9999 16.6666C18.159 16.6666 16.6666 18.159 16.6666 20Z" fill="white"/>
<path d="M16.6666 9.99996C16.6666 11.8409 18.159 13.3333 19.9999 13.3333C21.8409 13.3333 23.3333 11.8409 23.3333 9.99996C23.3333 8.15901 21.8409 6.66663 19.9999 6.66663C18.159 6.66663 16.6666 8.15901 16.6666 9.99996Z" fill="white"/>
<path d="M16.6666 30C16.6666 31.8409 18.159 33.3333 19.9999 33.3333C21.8409 33.3333 23.3333 31.8409 23.3333 30C23.3333 28.159 21.8409 26.6666 19.9999 26.6666C18.159 26.6666 16.6666 28.159 16.6666 30Z" fill="white"/>
</svg>
